<svg width="21" height="30" viewBox="0 0 21 30" fill="none" xmlns="http://www.w3.org/2000/svg">
<path d="M0.999517 28V2.68237C0.999517 2.13009 1.44723 1.68237 1.99952 1.68237H15.1263C15.4254 1.68237 15.7088 1.81625 15.8988 2.04728L19.8633 6.86912C20.0104 7.04807 20.0908 7.27255 20.0908 7.50422V28C20.0908 28.5523 19.6431 29 19.0908 29H1.99952C1.44723 29 0.999517 28.5523 0.999517 28Z" stroke="#58508D" stroke-width="1.5"/>
<path d="M20.0908 7.14647H14.4757V1" stroke="#58508D" stroke-width="1.5"/>
<path d="M3.5459 10.5457H16.9098" stroke="#58508D" stroke-width="1.5" stroke-linecap="round"/>
<path d="M3.5459 13.7275H16.9098" stroke="#58508D" stroke-width="1.5" stroke-linecap="round"/>
<path d="M3.5459 17.5459H16.9098" stroke="#58508D" stroke-width="1.5" stroke-linecap="round"/>
<path d="M3.5459 21.364H16.9098" stroke="#58508D" stroke-width="1.5" stroke-linecap="round"/>
</svg>
