<svg width="31" height="43" viewBox="0 0 31 43" fill="none" xmlns="http://www.w3.org/2000/svg">
<path d="M1.00035 40.999V2.02344C1.00035 1.47115 1.44807 1.02344 2.00036 1.02344H22.4263C22.7254 1.02344 23.0088 1.15732 23.1988 1.38835L29.4092 8.94178C29.5563 9.12073 29.6367 9.34521 29.6367 9.57687V40.999C29.6367 41.5513 29.189 41.999 28.6367 41.999H2.00035C1.44807 41.999 1.00035 41.5513 1.00035 40.999Z" stroke="#58508D" stroke-width="1.5"/>
<path d="M29.6367 9.21951H21.2143V0" stroke="#58508D" stroke-width="1.5"/>
<path d="M15.3174 30.5454V36.2727" stroke="#58508D" stroke-width="1.5"/>
<path d="M15.4049 21C14.8526 21 14.3228 21.2194 13.9323 21.61C13.5417 22.0006 13.3223 22.5303 13.3223 23.0826V28.6364C13.3223 29.1887 13.5417 29.7184 13.9323 30.109C14.3228 30.4996 14.8526 30.719 15.4049 30.719C15.9573 30.719 16.487 30.4996 16.8776 30.109C17.2681 29.7184 17.4876 29.1887 17.4876 28.6364V23.0826C17.4876 22.5303 17.2681 22.0006 16.8776 21.61C16.487 21.2194 15.9573 21 15.4049 21V21Z" stroke="#58508D" stroke-width="1.5" stroke-linecap="round" stroke-linejoin="round"/>
<path d="M20.2639 27.2473V28.6357C20.2639 29.9246 19.7519 31.1606 18.8406 32.0719C17.9293 32.9833 16.6932 33.4952 15.4044 33.4952C14.1156 33.4952 12.8796 32.9833 11.9682 32.0719C11.0569 31.1606 10.5449 29.9246 10.5449 28.6357V27.2473" stroke="#58508D" stroke-width="1.5" stroke-linecap="round" stroke-linejoin="round"/>
<path d="M12.627 36.2727H18.1807" stroke="#58508D" stroke-width="1.5" stroke-linecap="round" stroke-linejoin="round"/>
</svg>
