<svg width="17" height="33" viewBox="0 0 17 33" fill="none" xmlns="http://www.w3.org/2000/svg">
<path d="M8.98575 32.7757L8.12349 32.7982C6.15176 32.8499 4.3121 32.2096 2.94416 30.9957C1.51896 29.7308 0.704886 27.9185 0.651823 25.8921L0.198914 7.91538C0.10415 3.90476 2.37565 0.937791 5.60184 0.853311L5.61526 0.852959L5.96576 0.845002C7.60813 0.806147 9.0951 1.52943 10.1516 2.88188C11.1129 4.11227 11.6661 5.80271 11.7096 7.6418L12.1106 24.5783C12.1365 25.6771 11.8269 26.718 11.2386 27.5093C10.5914 28.3798 9.67314 28.8735 8.65177 28.9003C8.64908 28.9003 8.64615 28.9004 8.64347 28.9005C7.64154 28.924 6.64082 28.4804 5.89727 27.6827C5.16353 26.8957 4.74528 25.8552 4.71911 24.7533L4.39858 11.2162C4.38625 10.6895 4.80244 10.2525 5.32887 10.2387L5.33131 10.2386C5.85875 10.226 6.29659 10.6437 6.30894 11.1711L6.62947 24.7081C6.6446 25.3417 6.88092 25.9354 7.29504 26.3797C7.66668 26.7784 8.14167 27.0009 8.59808 26.9899L8.60149 26.9898C9.14257 26.9756 9.50024 26.6449 9.70502 26.3694C10.0402 25.9183 10.216 25.2983 10.2 24.6234L9.79926 7.68718C9.7652 6.25594 9.35559 4.96715 8.64577 4.05842C8.16793 3.44694 7.3228 2.72443 6.00993 2.75563L5.65967 2.76334C5.65674 2.76342 5.65381 2.76349 5.65088 2.76357C4.34396 2.79779 3.53691 3.55746 3.08968 4.1895C2.42366 5.13084 2.07542 6.43753 2.10948 7.86876L2.56208 25.8431C2.64075 28.8474 4.95882 30.9696 8.07347 30.888L8.93573 30.8654C12.0506 30.7839 14.254 28.5433 14.1753 25.538L13.7826 10.5441C13.7688 10.0167 14.1855 9.57765 14.7129 9.56384C15.2403 9.55003 15.6793 9.96666 15.6931 10.4941L16.0857 25.488C16.1388 27.5144 15.4207 29.3668 14.0641 30.7045C12.7614 31.9883 10.958 32.724 8.98575 32.7757Z" fill="#58508D"/>
</svg>
