<svg width="8" height="15" viewBox="0 0 8 15" fill="none" xmlns="http://www.w3.org/2000/svg">
<path d="M3.93126 14.9019L3.55403 14.9117C2.69139 14.9343 1.88654 14.6542 1.28807 14.1231C0.664546 13.5697 0.308388 12.7768 0.285172 11.8903L0.0870248 4.02548C0.0455655 2.27083 1.03935 0.972784 2.4508 0.935823L2.45668 0.93567L2.61002 0.932188C3.32856 0.915189 3.97911 1.23163 4.44133 1.82332C4.86188 2.36162 5.10392 3.10118 5.12296 3.90579L5.29839 11.3155C5.3097 11.7962 5.17428 12.2516 4.91687 12.5978C4.63376 12.9787 4.232 13.1947 3.78515 13.2064C3.78397 13.2064 3.78269 13.2064 3.78152 13.2065C3.34318 13.2168 2.90536 13.0227 2.58006 12.6737C2.25904 12.3294 2.07606 11.8742 2.06461 11.3921L1.92438 5.46961C1.91898 5.23917 2.10107 5.04795 2.33138 5.04192L2.33245 5.04189C2.5632 5.03638 2.75476 5.2191 2.76016 5.44986L2.90039 11.3723C2.90701 11.6495 3.0104 11.9092 3.19158 12.1036C3.35417 12.278 3.56198 12.3754 3.76166 12.3706L3.76315 12.3705C3.99987 12.3643 4.15636 12.2196 4.24594 12.0991C4.39261 11.9018 4.46949 11.6305 4.4625 11.3352L4.28718 3.92564C4.27227 3.29948 4.09307 2.73563 3.78252 2.33806C3.57347 2.07054 3.20372 1.75444 2.62934 1.76809L2.47611 1.77146C2.47482 1.77149 2.47354 1.77153 2.47226 1.77156C1.90048 1.78653 1.5474 2.11889 1.35173 2.39541C1.06035 2.80724 0.907997 3.37892 0.922898 4.00508L1.12091 11.8688C1.15533 13.1832 2.16948 14.1117 3.53214 14.076L3.90938 14.0661C5.27215 14.0304 6.23611 13.0502 6.20168 11.7354L6.0299 5.17554C6.02386 4.9448 6.20614 4.75272 6.43688 4.74668C6.66762 4.74064 6.85969 4.92291 6.86574 5.15365L7.03751 11.7135C7.06073 12.6 6.74655 13.4105 6.15306 13.9957C5.58309 14.5574 4.79411 14.8793 3.93126 14.9019Z" fill="#232F34"/>
</svg>
