<svg width="18" height="17" viewBox="0 0 18 17" fill="none" xmlns="http://www.w3.org/2000/svg">
<path d="M17.0001 8.7998V14.9999C17.0001 15.5522 16.5524 15.9999 16.0001 15.9999H2C1.44772 15.9999 1 15.5522 1 14.9999V8.7998" stroke="#58508D" stroke-width="1.5" stroke-linecap="round"/>
<path d="M13.8003 9.17945L9.00024 13.9795L4.2002 9.17945L4.8659 8.54879L9.00024 12.6481L13.1346 8.54879L13.8003 9.17945Z" fill="#58508D"/>
<path d="M8.50977 13.3135V-0.000495911H9.49079V13.3135H8.50977Z" fill="#58508D"/>
</svg>
