<svg width="31" height="43" viewBox="0 0 31 43" fill="none" xmlns="http://www.w3.org/2000/svg">
<path d="M1.00035 40.999V2.02344C1.00035 1.47115 1.44807 1.02344 2.00036 1.02344H22.4263C22.7254 1.02344 23.0088 1.15732 23.1988 1.38835L29.4092 8.94178C29.5563 9.12073 29.6367 9.34521 29.6367 9.57687V40.999C29.6367 41.5513 29.189 41.999 28.6367 41.999H2.00035C1.44807 41.999 1.00035 41.5513 1.00035 40.999Z" stroke="#58508D" stroke-width="1.5"/>
<path d="M29.6367 9.21951H21.2143V0" stroke="#58508D" stroke-width="1.5"/>
<path d="M19.6104 22.7891C19.1486 22.486 18.5853 22.3789 18.0445 22.4911C17.5037 22.6034 17.0296 22.9259 16.7265 23.3877L13.6796 28.031C13.3766 28.4928 13.2694 29.0561 13.3817 29.5969C13.4939 30.1377 13.8164 30.6118 14.2782 30.9148C14.74 31.2179 15.3033 31.325 15.8441 31.2128C16.385 31.1005 16.859 30.778 17.1621 30.3162L20.209 25.6729C20.512 25.2111 20.6192 24.6478 20.5069 24.107C20.3947 23.5662 20.0722 23.0921 19.6104 22.7891V22.7891Z" stroke="#58508D" stroke-linecap="round" stroke-linejoin="round"/>
<path d="M14.8721 26.5291C14.4103 26.226 13.847 26.1189 13.3062 26.2311C12.7654 26.3434 12.2913 26.6659 11.9883 27.1277L8.94133 31.771C8.6383 32.2328 8.53112 32.7961 8.64339 33.3369C8.75565 33.8777 9.07816 34.3518 9.53997 34.6548C10.0018 34.9578 10.565 35.065 11.1059 34.9528C11.6467 34.8405 12.1208 34.518 12.4238 34.0562L15.4707 29.4129C15.7738 28.9511 15.8809 28.3878 15.7687 27.847C15.6564 27.3062 15.3339 26.8321 14.8721 26.5291V26.5291Z" stroke="#58508D" stroke-linecap="round" stroke-linejoin="round"/>
</svg>
