<svg width="30" height="30" viewBox="0 0 30 30" fill="none" xmlns="http://www.w3.org/2000/svg">
<mask id="path-1-inside-1" fill="white">
<path d="M23.75 30H6.25C4.87125 30 3.75 28.8787 3.75 27.5V15C3.75 13.6212 4.87125 12.5 6.25 12.5H23.75C25.1287 12.5 26.25 13.6212 26.25 15V27.5C26.25 28.8787 25.1287 30 23.75 30ZM6.25 13.75C5.56 13.75 5 14.3112 5 15V27.5C5 28.1888 5.56 28.75 6.25 28.75H23.75C24.44 28.75 25 28.1888 25 27.5V15C25 14.3112 24.44 13.75 23.75 13.75H6.25Z"/>
</mask>
<path d="M23.75 30H6.25C4.87125 30 3.75 28.8787 3.75 27.5V15C3.75 13.6212 4.87125 12.5 6.25 12.5H23.75C25.1287 12.5 26.25 13.6212 26.25 15V27.5C26.25 28.8787 25.1287 30 23.75 30ZM6.25 13.75C5.56 13.75 5 14.3112 5 15V27.5C5 28.1888 5.56 28.75 6.25 28.75H23.75C24.44 28.75 25 28.1888 25 27.5V15C25 14.3112 24.44 13.75 23.75 13.75H6.25Z" fill="#58508D"/>
<path d="M23.75 28.5H6.25V31.5H23.75V28.5ZM6.25 28.5C5.69968 28.5 5.25 28.0503 5.25 27.5H2.25C2.25 29.7072 4.04282 31.5 6.25 31.5V28.5ZM5.25 27.5V15H2.25V27.5H5.25ZM5.25 15C5.25 14.4497 5.69968 14 6.25 14V11C4.04282 11 2.25 12.7928 2.25 15H5.25ZM6.25 14H23.75V11H6.25V14ZM23.75 14C24.3003 14 24.75 14.4497 24.75 15H27.75C27.75 12.7928 25.9572 11 23.75 11V14ZM24.75 15V27.5H27.75V15H24.75ZM24.75 27.5C24.75 28.0503 24.3003 28.5 23.75 28.5V31.5C25.9572 31.5 27.75 29.7072 27.75 27.5H24.75ZM6.25 12.25C4.7306 12.25 3.5 13.4838 3.5 15H6.5C6.5 15.1387 6.3894 15.25 6.25 15.25V12.25ZM3.5 15V27.5H6.5V15H3.5ZM3.5 27.5C3.5 29.0162 4.7306 30.25 6.25 30.25V27.25C6.3894 27.25 6.5 27.3613 6.5 27.5H3.5ZM6.25 30.25H23.75V27.25H6.25V30.25ZM23.75 30.25C25.2694 30.25 26.5 29.0162 26.5 27.5H23.5C23.5 27.3613 23.6106 27.25 23.75 27.25V30.25ZM26.5 27.5V15H23.5V27.5H26.5ZM26.5 15C26.5 13.4838 25.2694 12.25 23.75 12.25V15.25C23.6106 15.25 23.5 15.1387 23.5 15H26.5ZM23.75 12.25H6.25V15.25H23.75V12.25Z" fill="#58508D" mask="url(#path-1-inside-1)"/>
<mask id="path-3-inside-2" fill="white">
<path d="M8.125 18.75C7.78 18.75 7.5 18.47 7.5 18.125V12.5C7.5 8.36375 10.8637 5 15 5C19.1362 5 22.5 8.36375 22.5 12.5V13.125C22.5 13.47 22.22 13.75 21.875 13.75C21.53 13.75 21.25 13.47 21.25 13.125V12.5C21.25 9.05375 18.4462 6.25 15 6.25C11.5538 6.25 8.75 9.05375 8.75 12.5V18.125C8.75 18.47 8.47 18.75 8.125 18.75Z"/>
</mask>
<path d="M8.125 18.75C7.78 18.75 7.5 18.47 7.5 18.125V12.5C7.5 8.36375 10.8637 5 15 5C19.1362 5 22.5 8.36375 22.5 12.5V13.125C22.5 13.47 22.22 13.75 21.875 13.75C21.53 13.75 21.25 13.47 21.25 13.125V12.5C21.25 9.05375 18.4462 6.25 15 6.25C11.5538 6.25 8.75 9.05375 8.75 12.5V18.125C8.75 18.47 8.47 18.75 8.125 18.75Z" fill="#58508D"/>
<path d="M8.125 17.25C8.60843 17.25 9 17.6416 9 18.125H6C6 19.2984 6.95157 20.25 8.125 20.25V17.25ZM9 18.125V12.5H6V18.125H9ZM9 12.5C9 9.19218 11.6922 6.5 15 6.5V3.5C10.0353 3.5 6 7.53532 6 12.5H9ZM15 6.5C18.3078 6.5 21 9.19218 21 12.5H24C24 7.53532 19.9647 3.5 15 3.5V6.5ZM21 12.5V13.125H24V12.5H21ZM21 13.125C21 12.6416 21.3916 12.25 21.875 12.25V15.25C23.0484 15.25 24 14.2984 24 13.125H21ZM21.875 12.25C22.3584 12.25 22.75 12.6416 22.75 13.125H19.75C19.75 14.2984 20.7016 15.25 21.875 15.25V12.25ZM22.75 13.125V12.5H19.75V13.125H22.75ZM22.75 12.5C22.75 8.22532 19.2747 4.75 15 4.75V7.75C17.6178 7.75 19.75 9.88218 19.75 12.5H22.75ZM15 4.75C10.7253 4.75 7.25 8.22532 7.25 12.5H10.25C10.25 9.88218 12.3822 7.75 15 7.75V4.75ZM7.25 12.5V18.125H10.25V12.5H7.25ZM7.25 18.125C7.25 17.6416 7.64157 17.25 8.125 17.25V20.25C9.29843 20.25 10.25 19.2984 10.25 18.125H7.25Z" fill="#58508D" mask="url(#path-3-inside-2)"/>
<rect x="5" y="12.5" width="20" height="17.5" rx="1" fill="#58508D"/>
</svg>
