<svg width="257" height="179" viewBox="0 0 257 179" fill="none" xmlns="http://www.w3.org/2000/svg">
<path d="M120.336 168.945L14.2563 169.655C13.4253 169.659 12.6266 169.333 12.0356 168.749C11.4445 168.165 11.1095 167.37 11.1039 166.539L10.1067 17.42C10.1084 16.5937 10.4361 15.8015 11.0185 15.2153C11.601 14.6292 12.3911 14.2965 13.2174 14.2896L119.298 13.5802C120.13 13.5747 120.93 13.8998 121.522 14.4842C122.114 15.0686 122.45 15.8643 122.456 16.6962L123.452 165.787C123.458 166.619 123.133 167.42 122.549 168.012C121.964 168.604 121.168 168.94 120.336 168.945ZM13.2181 14.3995C12.4236 14.4063 11.6641 14.728 11.1065 15.2942C10.5489 15.8603 10.2388 16.6245 10.2441 17.4191L11.2412 166.538C11.2466 167.332 11.5669 168.092 12.132 168.651C12.6972 169.21 13.4608 169.521 14.2554 169.517L120.336 168.808C121.131 168.801 121.891 168.48 122.449 167.914C123.008 167.348 123.319 166.584 123.315 165.788L122.318 16.6697C122.311 15.8746 121.99 15.1146 121.424 14.5561C120.858 13.9977 120.093 13.6863 119.298 13.6901L13.2181 14.3995Z" fill="#EBEBEB"/>
<path d="M239.173 168.15L133.087 168.86C132.255 168.864 131.456 168.538 130.864 167.954C130.272 167.37 129.936 166.575 129.929 165.744L128.932 16.6251C128.935 15.7983 129.264 15.006 129.847 14.4201C130.431 13.8341 131.221 13.5016 132.048 13.4946L238.134 12.7852C238.959 12.7826 239.752 13.1053 240.341 13.6835C240.93 14.2616 241.268 15.0486 241.281 15.8738L242.278 164.993C242.283 165.823 241.96 166.621 241.378 167.213C240.796 167.805 240.003 168.142 239.173 168.15ZM132.049 13.6045C131.254 13.6113 130.494 13.9329 129.935 14.4989C129.377 15.0649 129.065 15.8291 129.069 16.6242L130.066 165.743C130.073 166.538 130.395 167.298 130.961 167.856C131.527 168.415 132.291 168.726 133.086 168.722L239.172 168.013C239.967 168.006 240.727 167.685 241.285 167.119C241.844 166.553 242.155 165.789 242.151 164.993L241.154 15.8747C241.147 15.0796 240.826 14.3196 240.26 13.7611C239.694 13.2027 238.93 12.8913 238.134 12.8951L132.049 13.6045Z" fill="#EBEBEB"/>
<path d="M126.958 91.1331C115.802 91.2069 104.768 93.4778 94.4893 97.8159C84.2102 102.154 74.8862 108.475 67.0499 116.416C59.2136 124.358 53.0184 133.766 48.8181 144.102C44.6178 154.438 42.4947 165.501 42.5701 176.658L212.483 175.521C212.409 164.365 210.138 153.331 205.8 143.052C201.462 132.773 195.141 123.449 187.2 115.613C179.258 107.777 169.85 101.581 159.514 97.3811C149.178 93.1808 138.115 91.0577 126.958 91.1331Z" fill="#E7E0F4"/>
<path d="M0.19928 178.375L217.051 176.925C217.051 176.925 204.234 176.961 178.696 164.435C153.158 151.909 142.911 153.39 127.952 162.659C112.993 171.929 91.7699 151.424 56.9838 148.476C16.6511 145.081 19.153 178.248 0.19928 178.375Z" fill="#EBEBEB"/>
<path d="M213.792 30.1748C216.06 26.4818 214.906 21.649 211.213 19.3804C207.52 17.1119 202.687 18.2666 200.418 21.9597C198.15 25.6527 199.304 30.4855 202.997 32.7541C206.69 35.0226 211.523 33.8679 213.792 30.1748Z" fill="#E7E0F4"/>
<path d="M27.5367 78.6933C30.3615 78.6744 32.6361 76.3692 32.6172 73.5444C32.5983 70.7196 30.2931 68.445 27.4683 68.4638C24.6435 68.4827 22.3688 70.788 22.3877 73.6128C22.4066 76.4376 24.7119 78.7122 27.5367 78.6933Z" fill="#E7E0F4"/>
<path d="M229.832 97.9929C230.491 95.1121 228.691 92.2421 225.81 91.5824C222.929 90.9228 220.059 92.7234 219.399 95.6042C218.74 98.485 220.54 101.355 223.421 102.015C226.302 102.674 229.172 100.874 229.832 97.9929Z" fill="#E7E0F4"/>
<path d="M73.3155 9.20827C75.7186 9.1922 77.6536 7.23112 77.6376 4.82807C77.6215 2.42502 75.6604 0.489991 73.2574 0.50606C70.8543 0.52213 68.9193 2.48321 68.9353 4.88626C68.9514 7.28931 70.9125 9.22434 73.3155 9.20827Z" fill="#E7E0F4"/>
<path d="M41.755 30.0324C41.2037 29.7847 40.6084 29.65 40.0042 29.6363C39.4 29.6226 38.7992 29.7301 38.2373 29.9526C37.6753 30.175 37.1637 30.5079 36.7326 30.9315C36.3016 31.355 35.9598 31.8607 35.7275 32.4187C35.1726 32.1844 34.5766 32.0633 33.9743 32.0623C33.372 32.0613 32.7756 32.1805 32.2199 32.413C31.6643 32.6454 31.1606 32.9863 30.7384 33.4159C30.3162 33.8454 29.984 34.3549 29.7611 34.9144C29.3391 36.0428 29.3734 37.2913 29.8567 38.3948C30.34 39.4984 31.2344 40.3702 32.3499 40.8252L38.7246 43.5296C39.2128 43.7337 39.7619 43.736 40.2518 43.536C40.7416 43.3361 41.1323 42.9501 41.3382 42.4628L44.0426 36.088C44.5276 34.9799 44.5599 33.7259 44.1324 32.5942C43.7049 31.4626 42.8516 30.5431 41.755 30.0324Z" fill="#E7E0F4"/>
<path d="M233.2 49.7274C233.036 49.2312 232.776 48.7724 232.433 48.3779C232.091 47.9834 231.673 47.661 231.205 47.4295C230.736 47.1979 230.226 47.0618 229.705 47.0292C229.184 46.9965 228.661 47.0679 228.167 47.2392C227.995 46.7458 227.725 46.2917 227.375 45.9035C227.025 45.5153 226.601 45.2008 226.128 44.9784C225.655 44.756 225.142 44.6301 224.62 44.6081C224.097 44.5861 223.576 44.6685 223.086 44.8503C222.112 45.2343 221.327 45.983 220.897 46.9371C220.468 47.8912 220.427 48.9753 220.785 49.9587L222.762 55.6264C222.912 56.0618 223.228 56.4203 223.641 56.6235C224.054 56.8266 224.531 56.8579 224.967 56.7104L230.635 54.7276C231.631 54.3953 232.458 53.6857 232.938 52.7509C233.417 51.8162 233.511 50.7307 233.2 49.7274Z" fill="#E7E0F4"/>
<path d="M175.265 9.42185C175.267 9.71197 175.183 9.99614 175.023 10.2384C174.863 10.4807 174.636 10.6703 174.368 10.7831C174.101 10.8959 173.806 10.9269 173.521 10.8722C173.236 10.8175 172.974 10.6796 172.768 10.4758C172.561 10.272 172.42 10.0116 172.361 9.72745C172.303 9.44329 172.33 9.14816 172.439 8.87938C172.548 8.61061 172.735 8.38026 172.975 8.21747C173.215 8.05468 173.498 7.96675 173.788 7.96481C173.981 7.9628 174.172 7.99896 174.351 8.07123C174.53 8.1435 174.693 8.25043 174.83 8.38588C174.967 8.52132 175.076 8.68259 175.151 8.86039C175.226 9.0382 175.264 9.22901 175.265 9.42185Z" fill="#EBEBEB"/>
<path d="M169.772 25.9883C169.774 26.2784 169.689 26.5625 169.53 26.8048C169.37 27.0471 169.142 27.2367 168.875 27.3495C168.608 27.4623 168.313 27.4933 168.028 27.4386C167.743 27.3839 167.481 27.246 167.274 27.0422C167.068 26.8385 166.927 26.578 166.868 26.2939C166.81 26.0097 166.837 25.7146 166.946 25.4458C167.055 25.177 167.242 24.9467 167.482 24.7839C167.722 24.6211 168.005 24.5332 168.295 24.5312C168.488 24.5292 168.679 24.5654 168.858 24.6376C169.037 24.7099 169.199 24.8168 169.337 24.9523C169.474 25.0877 169.583 25.249 169.658 25.4268C169.732 25.6046 169.771 25.7954 169.772 25.9883Z" fill="#F0F0F0"/>
<path d="M37.0939 117.644C37.0958 117.935 37.0117 118.219 36.8521 118.461C36.6926 118.703 36.4647 118.893 36.1974 119.006C35.9302 119.119 35.6354 119.15 35.3505 119.095C35.0656 119.04 34.8033 118.902 34.5968 118.698C34.3903 118.495 34.2488 118.234 34.1903 117.95C34.1318 117.666 34.1589 117.371 34.2681 117.102C34.3773 116.833 34.5638 116.603 34.804 116.44C35.0441 116.277 35.3271 116.189 35.6172 116.187C36.0063 116.185 36.3804 116.337 36.6573 116.61C36.9343 116.883 37.0913 117.255 37.0939 117.644Z" fill="#F0F0F0"/>
<path d="M225.398 123.582C225.4 123.872 225.315 124.156 225.156 124.399C224.996 124.641 224.768 124.83 224.501 124.943C224.234 125.056 223.939 125.087 223.654 125.032C223.369 124.978 223.107 124.84 222.9 124.636C222.694 124.432 222.553 124.172 222.494 123.888C222.436 123.603 222.463 123.308 222.572 123.04C222.681 122.771 222.868 122.54 223.108 122.378C223.348 122.215 223.631 122.127 223.921 122.125C224.31 122.124 224.683 122.276 224.959 122.549C225.236 122.822 225.394 123.193 225.398 123.582Z" fill="#F0F0F0"/>
<path d="M131.199 149.732C181.413 146.834 220.336 113.558 218.134 75.4089C215.932 37.2594 173.44 8.6825 123.225 11.5806C73.0108 14.4787 34.0886 47.7544 36.2904 85.9039C38.4922 124.053 80.9841 152.63 131.199 149.732Z" fill="#7E57C2"/>
<path opacity="0.6" d="M131.199 149.732C181.413 146.834 220.336 113.558 218.134 75.4089C215.932 37.2594 173.44 8.6825 123.225 11.5806C73.0108 14.4787 34.0886 47.7544 36.2904 85.9039C38.4922 124.053 80.9841 152.63 131.199 149.732Z" fill="white"/>
<path opacity="0.2" d="M213.752 100.024L177.475 97.6073L216.639 91.4063C217.591 87.5696 218.117 83.6399 218.209 79.688L176.549 93.7841L217.356 68.788C216.554 64.482 215.234 60.2886 213.427 56.2988L174.193 90.6243L207.058 45.4082C204.22 41.5536 200.991 38.0033 197.422 34.8141L170.833 88.5755L185.799 26.1783C181.254 23.3875 176.48 20.9895 171.527 19.0106L166.945 87.9807L155.226 13.9771C149.203 12.6421 143.083 11.7974 136.924 11.4514L163.122 88.9238L116.04 12.0745C108.781 12.9131 101.618 14.4326 94.6436 16.6128L159.973 91.2523L71.5887 27.0244C64.5681 31.2643 58.1905 36.4873 52.65 42.5344L157.913 94.634L38.7421 66.0047C36.6643 72.3716 35.7887 79.0695 36.1602 85.7566C36.2477 87.3438 36.4175 88.9085 36.6421 90.4618L157.318 98.5168L47.3555 115.921C52.5449 122.831 58.9073 128.776 66.1528 133.486L158.245 102.34L89.3622 144.539C96.3105 146.773 103.463 148.314 110.715 149.138L160.595 105.5L128.378 149.827C129.279 149.799 130.18 149.76 131.08 149.71C135.349 149.469 139.603 149.002 143.823 148.312L163.988 107.548L154.762 145.975C158.428 145.003 162.042 143.846 165.59 142.507L167.882 108.138L172.838 139.459C175.715 138.121 178.484 136.674 181.143 135.118L171.677 107.178L186.641 131.604C189.061 129.961 191.396 128.198 193.639 126.321L174.848 104.866L198.439 122.009C200.623 119.865 202.675 117.591 204.585 115.199L176.875 101.49L208.94 109.187C210.793 106.27 212.403 103.205 213.752 100.024Z" fill="#7E57C2"/>
<path d="M195.208 56.1637L195.153 56.208C199.429 49.0646 184.187 50.4137 174.875 63.6397C174.12 57.5354 160.353 67.6596 158.746 73.8182L200.228 68.294C201.335 68.1458 202.385 67.7126 203.275 67.0368C204.164 66.361 204.863 65.4658 205.302 64.4388C205.742 63.4118 205.907 62.2882 205.782 61.1782C205.657 60.0681 205.245 59.0096 204.588 58.1063L204.205 57.5594C203.196 56.1837 201.681 55.2644 199.995 55.0028C198.309 54.7412 196.587 55.1586 195.208 56.1637Z" fill="white"/>
<path d="M82.4754 70.1404C84.096 66.009 82.7875 62.5839 71.8808 70.6562C74.7736 66.1537 69.0881 67.9279 63.6475 71.8101C62.4949 71.164 59.7505 71.5615 55.1418 74.9711C58.3391 70.0051 46.638 75.9455 44.1966 81.3955L81.364 76.466C81.364 76.466 90.3046 71.7967 82.4754 70.1404Z" fill="white"/>
<path d="M106.921 103.448C109.436 99.9204 104.899 95.1655 91.1166 105.367C94.776 99.6778 87.5939 101.934 80.7317 106.854C79.2758 106.034 75.7849 106.535 69.9791 110.848C74.0192 104.569 59.2354 112.079 56.1114 118.962L103.099 112.704C103.099 112.704 117.883 100.298 106.921 103.448Z" fill="white"/>
<path d="M139.901 87.3077C140.223 88.2668 140.638 89.358 141.075 90.4353C141.513 91.5125 142.005 92.6169 142.498 93.703C143.492 95.8842 144.6 98.0235 145.744 100.089C146.328 101.111 146.934 102.104 147.563 103.048C148.192 103.991 148.825 104.898 149.48 105.713C150.069 106.454 150.714 107.151 151.407 107.796C151.816 108.175 152.261 108.513 152.737 108.803L151.646 108.6C151.206 108.572 150.764 108.626 150.343 108.76C150.034 108.851 149.742 108.994 149.481 109.182C149.107 109.468 149.122 109.56 149.181 109.537C149.552 109.193 149.86 108.787 150.088 108.336C150.432 107.716 150.789 106.99 151.127 106.219C151.465 105.448 151.771 104.622 152.086 103.782C152.4 102.942 152.697 102.08 152.984 101.204C153.271 100.327 153.572 99.4374 153.845 98.543L155.516 93.1353L155.543 93.0482C155.755 92.3262 156.215 91.702 156.841 91.2851C157.468 90.8682 158.221 90.6851 158.969 90.768C159.717 90.8509 160.412 91.1945 160.932 91.7385C161.452 92.2825 161.764 92.9922 161.814 93.7432C161.963 95.7807 162.002 97.8248 161.932 99.8667C161.893 100.883 161.845 101.904 161.761 102.93C161.676 103.956 161.564 104.991 161.424 106.036C161.285 107.08 161.09 108.13 160.855 109.211C160.62 110.348 160.309 111.468 159.925 112.563C159.46 113.935 158.803 115.234 157.974 116.421C157.324 117.343 156.51 118.138 155.573 118.767C154.901 119.215 154.166 119.559 153.392 119.789C152.501 120.047 151.572 120.146 150.647 120.082C150.353 120.065 150.061 120.018 149.777 119.941L149.557 119.878C147.563 119.317 145.693 118.384 144.046 117.128C142.717 116.123 141.484 114.997 140.361 113.765C139.328 112.647 138.351 111.478 137.436 110.26C136.549 109.072 135.736 107.864 134.959 106.652C134.182 105.44 133.459 104.209 132.783 102.964C132.106 101.718 131.443 100.46 130.844 99.1728C130.245 97.8861 129.66 96.5947 129.138 95.2479C128.579 93.8539 128.093 92.4317 127.681 90.9871C127.34 89.4199 127.6 87.7818 128.408 86.3963C129.216 85.0109 130.514 83.9788 132.046 83.504C133.578 83.0292 135.232 83.1462 136.682 83.8318C138.132 84.5174 139.272 85.7219 139.877 87.2072L139.901 87.3077Z" fill="#FFB573"/>
<path opacity="0.1" d="M139.901 87.3077C140.223 88.2668 140.638 89.358 141.075 90.4353C141.513 91.5125 142.005 92.6169 142.498 93.703C143.492 95.8842 144.6 98.0235 145.744 100.089C146.328 101.111 146.934 102.104 147.563 103.048C148.192 103.991 148.825 104.898 149.48 105.713C150.069 106.454 150.714 107.151 151.407 107.796C151.816 108.175 152.261 108.513 152.737 108.803L151.646 108.6C151.206 108.572 150.764 108.626 150.343 108.76C150.034 108.851 149.742 108.994 149.481 109.182C149.107 109.468 149.122 109.56 149.181 109.537C149.552 109.193 149.86 108.787 150.088 108.336C150.432 107.716 150.789 106.99 151.127 106.219C151.465 105.448 151.771 104.622 152.086 103.782C152.4 102.942 152.697 102.08 152.984 101.204C153.271 100.327 153.572 99.4374 153.845 98.543L155.516 93.1353L155.543 93.0482C155.755 92.3262 156.215 91.702 156.841 91.2851C157.468 90.8682 158.221 90.6851 158.969 90.768C159.717 90.8509 160.412 91.1945 160.932 91.7385C161.452 92.2825 161.764 92.9922 161.814 93.7432C161.963 95.7807 162.002 97.8248 161.932 99.8667C161.893 100.883 161.845 101.904 161.761 102.93C161.676 103.956 161.564 104.991 161.424 106.036C161.285 107.08 161.09 108.13 160.855 109.211C160.62 110.348 160.309 111.468 159.925 112.563C159.46 113.935 158.803 115.234 157.974 116.421C157.324 117.343 156.51 118.138 155.573 118.767C154.901 119.215 154.166 119.559 153.392 119.789C152.501 120.047 151.572 120.146 150.647 120.082C150.353 120.065 150.061 120.018 149.777 119.941L149.557 119.878C147.563 119.317 145.693 118.384 144.046 117.128C142.717 116.123 141.484 114.997 140.361 113.765C139.328 112.647 138.351 111.478 137.436 110.26C136.549 109.072 135.736 107.864 134.959 106.652C134.182 105.44 133.459 104.209 132.783 102.964C132.106 101.718 131.443 100.46 130.844 99.1728C130.245 97.8861 129.66 96.5947 129.138 95.2479C128.579 93.8539 128.093 92.4317 127.681 90.9871C127.34 89.4199 127.6 87.7818 128.408 86.3963C129.216 85.0109 130.514 83.9788 132.046 83.504C133.578 83.0292 135.232 83.1462 136.682 83.8318C138.132 84.5174 139.272 85.7219 139.877 87.2072L139.901 87.3077Z" fill="black"/>
<path d="M162.095 83.1728L159.181 82.0572C158.866 81.9364 158.53 81.8798 158.192 81.8908C157.854 81.9018 157.522 81.9801 157.215 82.1211C156.909 82.2622 156.633 82.4631 156.405 82.7122C156.177 82.9612 156 83.2533 155.887 83.5714L154.332 87.9301L154.953 95.2219L159.133 96.7823C162.696 96.3328 162.935 89.6622 162.935 89.6622L163.676 86.0734C163.801 85.4809 163.711 84.863 163.421 84.3312C163.131 83.7994 162.661 83.3886 162.095 83.1728Z" fill="#FFB573"/>
<path opacity="0.1" d="M162.095 83.1728L159.181 82.0572C158.866 81.9364 158.53 81.8798 158.192 81.8908C157.854 81.9018 157.522 81.9801 157.215 82.1211C156.909 82.2622 156.633 82.4631 156.405 82.7122C156.177 82.9612 156 83.2533 155.887 83.5714L154.332 87.9301L154.953 95.2219L159.133 96.7823C162.696 96.3328 162.935 89.6622 162.935 89.6622L163.676 86.0734C163.801 85.4809 163.711 84.863 163.421 84.3312C163.131 83.7994 162.661 83.3886 162.095 83.1728Z" fill="black"/>
<path d="M126.972 86.9053C130.329 79.628 140.352 79.5198 148.829 95.9135C146.331 104.274 135.022 110.731 135.022 110.731C135.022 110.731 122.952 95.6517 126.972 86.9053Z" fill="#7E57C2"/>
<path opacity="0.3" d="M126.972 86.9053C130.329 79.628 140.352 79.5198 148.829 95.9135C146.331 104.274 135.022 110.731 135.022 110.731C135.022 110.731 122.952 95.6517 126.972 86.9053Z" fill="black"/>
<path d="M135.795 82.4651C127.346 80.471 122.898 79.9515 117.386 79.7458C114.76 79.6487 112.145 80.12 109.718 81.1272C107.291 82.1344 105.111 83.6538 103.326 85.5816C101.541 87.5093 100.193 89.7999 99.3748 92.2966C98.5567 94.7933 98.2875 97.4373 98.5857 100.048C101.191 123.41 97.9875 137.914 97.6379 143.134C113.553 153.427 138.693 149.012 142.903 144.727C147.452 125.495 145.773 104.305 144.946 95.0277C144.501 90.0095 141.053 83.7069 135.795 82.4651Z" fill="#7E57C2"/>
<path opacity="0.2" d="M135.795 82.4651C127.346 80.471 122.898 79.9515 117.386 79.7458C114.76 79.6487 112.145 80.12 109.718 81.1272C107.291 82.1344 105.111 83.6538 103.326 85.5816C101.541 87.5093 100.193 89.7999 99.3748 92.2966C98.5567 94.7933 98.2875 97.4373 98.5857 100.048C101.191 123.41 97.9875 137.914 97.6379 143.134C113.553 153.427 138.693 149.012 142.903 144.727C147.452 125.495 145.773 104.305 144.946 95.0277C144.501 90.0095 141.053 83.7069 135.795 82.4651Z" fill="black"/>
<path opacity="0.3" d="M133.391 146.051L133.358 146.051C133.334 146.049 133.309 146.042 133.287 146.03C133.265 146.018 133.246 146.002 133.23 145.983C133.214 145.963 133.203 145.94 133.197 145.916C133.19 145.892 133.189 145.867 133.192 145.842C135.134 128.129 136.08 98.5174 132.7 91.3126C132.679 91.2666 132.677 91.2143 132.695 91.1671C132.713 91.1199 132.748 91.0815 132.794 91.0603C132.84 91.0398 132.892 91.0382 132.939 91.0558C132.987 91.0735 133.025 91.109 133.046 91.1547C136.784 99.126 135.233 130.733 133.568 145.885C133.563 145.929 133.542 145.97 133.51 146.001C133.477 146.031 133.435 146.049 133.391 146.051Z" fill="#263238"/>
<path d="M117.498 66.3523C118.01 74.4596 117.01 77.62 115.663 81.5425C116.522 84.6812 124.336 88.2861 131.372 89.1545C133.886 86.4601 133.493 83.8079 132.835 82.6177C130.779 81.835 128.822 79.3673 130.298 75.6774L117.498 66.3523Z" fill="#FFB573"/>
<path opacity="0.2" d="M126.197 72.3492L123.494 71.2734C123.445 72.3551 123.648 73.4334 124.087 74.4231C124.858 76.0382 127.812 77.6525 129.799 77.8223C129.85 77.0876 130.02 76.3661 130.302 75.686L126.197 72.3492Z" fill="black"/>
<path d="M132.272 45.7904C138.517 48.8565 139.006 52.1259 136.8 55.5461C129.064 51.4463 132.272 45.7904 132.272 45.7904Z" fill="#263238"/>
<path d="M114.74 59.8175C117.569 67.3738 118.844 71.947 123.943 74.673C131.61 78.7778 140.029 72.2494 139.507 63.9773C139.041 56.5288 134.49 45.423 126.022 44.7335C117.674 44.0661 111.911 52.2704 114.74 59.8175Z" fill="#FFB573"/>
<path d="M139.372 41.0537C138.761 42.0037 137.88 42.7492 136.841 43.1944C136.363 40.0622 130.838 35.2977 121.149 35.3625C122.087 35.8247 122.976 36.3816 123.801 37.0246C123.097 37.2346 122.472 37.6515 122.009 38.2211C121.545 38.7907 121.263 39.4867 121.2 40.2186C121.2 40.2186 111.421 41.3413 108.829 47.2952C108.331 45.9895 107.893 44.2622 108.213 42.7542C106.985 43.8975 105.407 49.6067 107.507 52.2108C103.398 53.8265 105.799 57.5821 105.799 57.5821C105.799 57.5821 105.868 56.2084 106.163 55.9044C107.312 57.2698 106.586 62.2821 110.272 63.8641C109.162 68.348 118.349 71.9208 118.543 68.6651C118.736 65.4095 118.733 63.5924 118.733 63.5924C119.602 63.4813 121.353 62.4534 121.333 62.1561C121.148 59.8687 118.315 58.5145 117.61 57.1827C119.979 57.5742 122.014 56.5399 122.341 55.5765C120.812 56.1223 119.081 55.4335 117.974 54.7589C118.208 51.4618 124.808 49.9942 131.515 50.3292C131.869 50.345 132.224 50.3426 132.577 50.3221C132.589 50.3198 132.602 50.3197 132.614 50.3219C133.996 50.3092 135.334 49.8292 136.408 48.96C139.315 46.9769 139.603 43.4414 139.372 41.0537Z" fill="#263238"/>
<path d="M113.008 65.865C113.563 66.6441 114.267 67.3057 115.078 67.8117C115.89 68.3176 116.794 68.658 117.738 68.8131C120.276 69.2081 121.267 66.8625 120.328 64.6214C119.481 62.6085 117.143 59.9694 114.708 60.599C112.272 61.2287 111.654 63.9196 113.008 65.865Z" fill="#FFB573"/>
<path d="M133.297 56.7441C133.297 56.7441 135.608 60.0929 137.595 61.4985C136.688 62.8228 134.669 62.7906 134.669 62.7906L133.297 56.7441Z" fill="#ED893E"/>
<path d="M131.715 65.8324C130.985 65.917 130.245 65.8501 129.542 65.6358C128.838 65.4216 128.187 65.0646 127.628 64.5873C127.61 64.5697 127.595 64.5487 127.585 64.5255C127.575 64.5023 127.57 64.4773 127.57 64.452C127.569 64.4267 127.574 64.4016 127.583 64.3781C127.593 64.3546 127.606 64.3331 127.624 64.315C127.642 64.2968 127.663 64.2823 127.686 64.2723C127.709 64.2623 127.734 64.2569 127.759 64.2565C127.785 64.2562 127.81 64.2608 127.833 64.2701C127.857 64.2794 127.878 64.2933 127.896 64.3109C128.527 64.8277 129.271 65.1881 130.068 65.3625C130.865 65.537 131.691 65.5206 132.48 65.3147C132.53 65.3035 132.582 65.3124 132.625 65.3396C132.668 65.3668 132.699 65.4099 132.71 65.4596C132.721 65.5099 132.713 65.5626 132.685 65.6064C132.658 65.6502 132.615 65.6817 132.565 65.694C132.285 65.7586 132.001 65.8049 131.715 65.8324Z" fill="#263238"/>
<path d="M124.199 56.2693C124.134 56.2703 124.069 56.255 124.011 56.2248C123.967 56.2011 123.927 56.1688 123.895 56.1298C123.863 56.0908 123.839 56.0458 123.824 55.9974C123.809 55.949 123.804 55.8982 123.809 55.8479C123.814 55.7975 123.828 55.7487 123.852 55.704C124.127 55.1536 124.53 54.6771 125.027 54.3146C125.524 53.9521 126.1 53.7141 126.708 53.6206C126.758 53.6159 126.808 53.6211 126.856 53.6359C126.904 53.6507 126.949 53.6749 126.987 53.707C127.026 53.739 127.058 53.7784 127.081 53.8228C127.104 53.8672 127.118 53.9158 127.123 53.9657C127.131 54.0679 127.099 54.1694 127.034 54.2485C126.968 54.3276 126.875 54.378 126.773 54.3892C126.294 54.4717 125.842 54.6662 125.452 54.9567C125.063 55.2472 124.748 55.6256 124.532 56.0611C124.5 56.1219 124.452 56.1731 124.394 56.2096C124.335 56.2462 124.268 56.2667 124.199 56.2693Z" fill="#263238"/>
<path d="M127.672 58.8144C127.621 58.8057 127.572 58.7857 127.53 58.7558C127.468 58.7061 127.428 58.6341 127.419 58.5554C127.41 58.4767 127.433 58.3975 127.481 58.335C127.768 57.9529 128.141 57.6442 128.57 57.4344C128.999 57.2247 129.472 57.1198 129.949 57.1285C129.988 57.1316 130.026 57.1425 130.061 57.1606C130.096 57.1787 130.126 57.2035 130.151 57.2336C130.176 57.2637 130.195 57.2985 130.206 57.336C130.218 57.3734 130.221 57.4128 130.217 57.4517C130.214 57.4908 130.203 57.5289 130.185 57.5639C130.167 57.5988 130.142 57.6298 130.112 57.6551C130.082 57.6804 130.047 57.6995 130.01 57.7113C129.972 57.7231 129.933 57.7274 129.894 57.7239C129.516 57.7237 129.143 57.8122 128.806 57.9822C128.468 58.1522 128.175 58.3989 127.951 58.7026C127.918 58.7439 127.875 58.7759 127.826 58.7955C127.777 58.8151 127.724 58.8216 127.672 58.8144Z" fill="#263238"/>
<path d="M137.896 56.5134C137.943 56.4895 137.983 56.4527 138.01 56.4073C138.031 56.3744 138.045 56.3377 138.052 56.2992C138.059 56.2607 138.058 56.2213 138.05 56.1831C138.042 56.1448 138.026 56.1087 138.004 56.0766C137.981 56.0445 137.953 56.0171 137.92 55.996C137.524 55.7287 137.071 55.5597 136.597 55.5032C136.122 55.4466 135.642 55.5042 135.194 55.6709C135.122 55.7035 135.066 55.7632 135.037 55.837C135.009 55.9108 135.01 55.9929 135.041 56.0656C135.075 56.138 135.135 56.1945 135.21 56.2231C135.284 56.2517 135.367 56.25 135.441 56.2185C135.796 56.0912 136.176 56.0501 136.551 56.0986C136.925 56.147 137.282 56.2836 137.594 56.4971C137.638 56.5266 137.689 56.5436 137.743 56.5465C137.796 56.5494 137.849 56.5379 137.896 56.5134Z" fill="#263238"/>
<path d="M137.864 53.208C137.804 53.2295 137.74 53.2363 137.677 53.228C137.614 53.2196 137.554 53.1964 137.502 53.1601C137.118 52.8621 136.667 52.6615 136.188 52.5754C135.709 52.4894 135.217 52.5204 134.752 52.6658C134.657 52.7017 134.551 52.698 134.458 52.6558C134.365 52.6135 134.292 52.5359 134.257 52.4403C134.221 52.3446 134.224 52.2386 134.267 52.1457C134.309 52.0527 134.386 51.9803 134.482 51.9444C135.063 51.7564 135.68 51.7114 136.282 51.8134C136.883 51.9153 137.451 52.1612 137.937 52.5301C138.02 52.5907 138.075 52.6813 138.091 52.7822C138.107 52.8832 138.083 52.9864 138.023 53.0696C137.983 53.1291 137.928 53.1769 137.864 53.208Z" fill="#263238"/>
<path d="M114.559 88.2321C115.002 89.0927 115.514 89.9158 116.091 90.6936C116.781 91.6253 117.522 92.5188 118.31 93.3701C119.135 94.2571 120.002 95.153 120.928 96.0165C121.853 96.88 122.816 97.7203 123.801 98.5514C124.786 99.3824 125.812 100.172 126.856 100.939C127.9 101.705 128.944 102.453 130.015 103.146C131.086 103.84 132.166 104.505 133.232 105.07C134.187 105.6 135.176 106.064 136.194 106.46L135.172 106.261C135.616 106.368 136.079 106.365 136.522 106.252C137.28 106.079 138.014 105.809 138.704 105.45C139.568 105.01 140.401 104.512 141.198 103.96C142.046 103.373 142.883 102.708 143.721 102.007C144.558 101.305 145.4 100.558 146.214 99.7701C147.028 98.9819 147.86 98.1799 148.66 97.3461C149.46 96.5123 150.265 95.6601 151.042 94.7853C151.442 94.3523 151.832 93.9149 152.214 93.4775L153.345 92.1883L153.459 92.0594C153.968 91.5127 154.652 91.1611 155.392 91.0652C156.133 90.9694 156.884 91.1354 157.516 91.5346C158.147 91.9338 158.619 92.541 158.85 93.2513C159.081 93.9616 159.057 94.7304 158.781 95.4247C158.498 96.0857 158.24 96.6367 157.956 97.2336C157.672 97.8305 157.382 98.3863 157.084 98.9559C156.478 100.09 155.85 101.216 155.17 102.319C154.491 103.422 153.78 104.516 153.014 105.588C152.247 106.66 151.435 107.709 150.568 108.749C149.675 109.806 148.727 110.814 147.727 111.77C146.665 112.798 145.52 113.737 144.304 114.576C142.939 115.54 141.453 116.319 139.884 116.894C138.01 117.588 136.011 117.878 134.017 117.744C133.773 117.726 133.53 117.686 133.293 117.625L133 117.545C131.301 117.086 129.641 116.494 128.035 115.774C126.534 115.116 125.129 114.37 123.755 113.606C122.381 112.842 121.053 112.027 119.752 111.175C118.451 110.323 117.195 109.411 115.958 108.454C113.421 106.536 111.051 104.408 108.871 102.093C107.712 100.865 106.633 99.5633 105.641 98.1968C104.537 96.6751 103.604 95.0357 102.862 93.3086C102.224 91.7836 102.203 90.0709 102.802 88.5305C103.402 86.9902 104.575 85.7423 106.076 85.0493C107.576 84.3564 109.287 84.2723 110.848 84.8148C112.41 85.3573 113.7 86.4841 114.447 87.9583L114.559 88.2321Z" fill="#FFB573"/>
<path d="M152.337 95.5908L151.716 88.2715L160.319 90.0082C160.319 90.0082 160.084 96.6787 156.517 97.1237L152.337 95.5908Z" fill="#FFB573"/>
<path d="M156.57 82.4447L159.48 83.5604C160.042 83.7756 160.509 84.1836 160.799 84.7115C161.088 85.2393 161.181 85.8528 161.06 86.4426L160.319 90.0314L151.739 88.2946L153.298 83.9541C153.413 83.6392 153.588 83.3501 153.815 83.1034C154.042 82.8568 154.315 82.6576 154.62 82.5172C154.924 82.3769 155.253 82.2982 155.588 82.2857C155.922 82.2733 156.256 82.3273 156.57 82.4447Z" fill="#FFB573"/>
<path d="M103.473 91.0583C105.097 84.7767 114.602 79.6691 124.339 97.0613C123.328 104.602 115.275 110.583 115.275 110.583C115.275 110.583 101.394 99.096 103.473 91.0583Z" fill="white"/>
<path d="M101.405 90.4268C103.186 83.0914 113.209 76.0488 123.278 94.3634C122.132 103.017 113.62 110.865 113.62 110.865C113.62 110.865 99.142 99.784 101.405 90.4268Z" fill="#7E57C2"/>
<path opacity="0.2" d="M101.405 90.4268C103.186 83.0914 113.209 76.0488 123.278 94.3634C122.132 103.017 113.62 110.865 113.62 110.865C113.62 110.865 99.142 99.784 101.405 90.4268Z" fill="black"/>
<path d="M256.781 176.955L54.251 178.309C54.251 178.309 75.6693 163.881 96.6036 151.023C117.538 138.164 129.482 138.232 141.932 147.319C154.382 156.405 179.569 148.55 199.052 144.525C236.607 136.763 238.764 168.444 256.781 176.955Z" fill="white"/>
</svg>
