<svg width="23" height="21" viewBox="0 0 23 21" fill="none" xmlns="http://www.w3.org/2000/svg">
<path d="M4.5 21H3.32813L4.03125 20.0156C4.54688 19.2656 4.92187 18.375 5.10937 17.2031C1.78125 15.7031 0 12.8906 0 9.1875C0 3.51563 4.26563 0 11.1563 0C18.0469 0 22.3125 3.51563 22.3125 9.1875C22.3125 14.9063 18.1406 18.375 11.1563 18.375C11.0156 18.375 10.8281 18.375 10.6875 18.375C9.56251 19.5937 7.6875 21 4.5 21ZM11.0625 1.21875C4.82813 1.21875 1.125 4.17188 1.125 9.1875C1.125 13.4531 3.75 15.375 5.90625 16.2656L6.32813 16.4531L6.28125 16.9219C6.14062 18 5.90626 18.9375 5.53126 19.7344C7.78126 19.4531 9.09375 18.3281 9.79687 17.3906L9.98439 17.1563H10.4063C10.5938 17.1563 10.8281 17.1563 11.0156 17.1563C19.9688 17.1563 20.9531 11.5781 20.9531 9.1875C21 4.21875 17.2969 1.21875 11.0625 1.21875Z" fill="#2A85D0"/>
</svg>
