<svg width="24" height="24" viewBox="0 0 24 24" fill="none" xmlns="http://www.w3.org/2000/svg">
<path d="M12 24C5.37239 24 0 18.6276 0 12C0 5.37238 5.37239 0 12 0C18.6276 0 24 5.32217 24 11.9498C24 18.5774 18.6276 24 12 24ZM12 1.25523C6.12553 1.25523 1.30544 6.07531 1.30544 11.9498C1.30544 17.8243 6.12553 22.6444 12 22.6444C17.8745 22.6444 22.6946 17.8243 22.6946 11.9498C22.6946 6.07531 17.8745 1.25523 12 1.25523Z" fill="#58508D"/>
<path d="M5.57324 11.2468H18.3766V12.6527H5.57324V11.2468Z" fill="#58508D"/>
<path d="M11.272 18.3516V5.54821H12.6778V18.3516H11.272Z" fill="#58508D"/>
</svg>
