<svg width="22" height="29" viewBox="0 0 22 29" fill="none" xmlns="http://www.w3.org/2000/svg">
<circle cx="10.8434" cy="6.65198" r="5.90198" stroke="#58508D" stroke-width="1.5"/>
<path d="M11.0328 27.3547C10.9972 27.3567 10.9695 27.3582 10.9503 27.3592C10.9309 27.3582 10.903 27.3567 10.8671 27.3547C10.7886 27.3501 10.672 27.3428 10.5227 27.3317C10.2242 27.3094 9.79602 27.272 9.28248 27.2118C8.25228 27.091 6.89288 26.8801 5.55209 26.5206C4.19926 26.1579 2.92655 25.6596 2.02658 24.9947C1.16896 24.3611 0.723135 23.6395 0.751351 22.7662C1.57349 20.0469 2.95334 18.1023 4.67651 16.8313C6.4194 15.5457 8.56372 14.9124 10.9504 14.9124C15.6123 14.9124 19.6075 17.8574 21.1482 22.7655C21.1646 23.6385 20.7114 24.361 19.8522 24.9942C18.9491 25.6598 17.6773 26.1581 16.3281 26.5207C14.9906 26.8802 13.6363 27.0911 12.6103 27.2118C12.0989 27.272 11.6727 27.3094 11.3755 27.3317C11.227 27.3428 11.1109 27.3502 11.0328 27.3547Z" stroke="#58508D" stroke-width="1.5"/>
</svg>
