<svg width="30" height="30" viewBox="0 0 30 30" fill="none" xmlns="http://www.w3.org/2000/svg">
<mask id="path-1-inside-1" fill="white">
<path d="M23.75 30H6.24997C4.87122 30 3.74997 28.8787 3.74997 27.5V15C3.74997 13.6212 4.87122 12.5 6.24997 12.5H23.75C25.1287 12.5 26.25 13.6212 26.25 15V27.5C26.25 28.8787 25.1287 30 23.75 30ZM6.24997 13.75C5.55997 13.75 4.99997 14.3112 4.99997 15V27.5C4.99997 28.1888 5.55997 28.75 6.24997 28.75H23.75C24.44 28.75 25 28.1888 25 27.5V15C25 14.3112 24.44 13.75 23.75 13.75H6.24997Z"/>
</mask>
<path d="M23.75 30H6.24997C4.87122 30 3.74997 28.8787 3.74997 27.5V15C3.74997 13.6212 4.87122 12.5 6.24997 12.5H23.75C25.1287 12.5 26.25 13.6212 26.25 15V27.5C26.25 28.8787 25.1287 30 23.75 30ZM6.24997 13.75C5.55997 13.75 4.99997 14.3112 4.99997 15V27.5C4.99997 28.1888 5.55997 28.75 6.24997 28.75H23.75C24.44 28.75 25 28.1888 25 27.5V15C25 14.3112 24.44 13.75 23.75 13.75H6.24997Z" fill="#58508D"/>
<path d="M23.75 28.5H6.24997V31.5H23.75V28.5ZM6.24997 28.5C5.69965 28.5 5.24997 28.0503 5.24997 27.5H2.24997C2.24997 29.7072 4.04279 31.5 6.24997 31.5V28.5ZM5.24997 27.5V15H2.24997V27.5H5.24997ZM5.24997 15C5.24997 14.4497 5.69965 14 6.24997 14V11C4.04279 11 2.24997 12.7928 2.24997 15H5.24997ZM6.24997 14H23.75V11H6.24997V14ZM23.75 14C24.3003 14 24.75 14.4497 24.75 15H27.75C27.75 12.7928 25.9571 11 23.75 11V14ZM24.75 15V27.5H27.75V15H24.75ZM24.75 27.5C24.75 28.0503 24.3003 28.5 23.75 28.5V31.5C25.9571 31.5 27.75 29.7072 27.75 27.5H24.75ZM6.24997 12.25C4.73057 12.25 3.49997 13.4838 3.49997 15H6.49997C6.49997 15.1387 6.38937 15.25 6.24997 15.25V12.25ZM3.49997 15V27.5H6.49997V15H3.49997ZM3.49997 27.5C3.49997 29.0162 4.73057 30.25 6.24997 30.25V27.25C6.38937 27.25 6.49997 27.3613 6.49997 27.5H3.49997ZM6.24997 30.25H23.75V27.25H6.24997V30.25ZM23.75 30.25C25.2694 30.25 26.5 29.0162 26.5 27.5H23.5C23.5 27.3613 23.6106 27.25 23.75 27.25V30.25ZM26.5 27.5V15H23.5V27.5H26.5ZM26.5 15C26.5 13.4838 25.2694 12.25 23.75 12.25V15.25C23.6106 15.25 23.5 15.1387 23.5 15H26.5ZM23.75 12.25H6.24997V15.25H23.75V12.25Z" fill="#58508D" mask="url(#path-1-inside-1)"/>
<mask id="path-3-inside-2" fill="white">
<path d="M8.125 13.75C7.78 13.75 7.5 13.47 7.5 13.125V7.5C7.5 3.36375 10.8637 0 15 0C19.1362 0 22.5 3.36375 22.5 7.5V8.125C22.5 8.47 22.22 8.75 21.875 8.75C21.53 8.75 21.25 8.47 21.25 8.125V7.5C21.25 4.05375 18.4462 1.25 15 1.25C11.5538 1.25 8.75 4.05375 8.75 7.5V13.125C8.75 13.47 8.47 13.75 8.125 13.75Z"/>
</mask>
<path d="M8.125 13.75C7.78 13.75 7.5 13.47 7.5 13.125V7.5C7.5 3.36375 10.8637 0 15 0C19.1362 0 22.5 3.36375 22.5 7.5V8.125C22.5 8.47 22.22 8.75 21.875 8.75C21.53 8.75 21.25 8.47 21.25 8.125V7.5C21.25 4.05375 18.4462 1.25 15 1.25C11.5538 1.25 8.75 4.05375 8.75 7.5V13.125C8.75 13.47 8.47 13.75 8.125 13.75Z" fill="#58508D"/>
<path d="M8.125 12.25C8.60843 12.25 9 12.6416 9 13.125H6C6 14.2984 6.95157 15.25 8.125 15.25V12.25ZM9 13.125V7.5H6V13.125H9ZM9 7.5C9 4.19218 11.6922 1.5 15 1.5V-1.5C10.0353 -1.5 6 2.53532 6 7.5H9ZM15 1.5C18.3078 1.5 21 4.19218 21 7.5H24C24 2.53532 19.9647 -1.5 15 -1.5V1.5ZM21 7.5V8.125H24V7.5H21ZM21 8.125C21 7.64157 21.3916 7.25 21.875 7.25V10.25C23.0484 10.25 24 9.29843 24 8.125H21ZM21.875 7.25C22.3584 7.25 22.75 7.64157 22.75 8.125H19.75C19.75 9.29843 20.7016 10.25 21.875 10.25V7.25ZM22.75 8.125V7.5H19.75V8.125H22.75ZM22.75 7.5C22.75 3.22532 19.2747 -0.25 15 -0.25V2.75C17.6178 2.75 19.75 4.88218 19.75 7.5H22.75ZM15 -0.25C10.7253 -0.25 7.25 3.22532 7.25 7.5H10.25C10.25 4.88218 12.3822 2.75 15 2.75V-0.25ZM7.25 7.5V13.125H10.25V7.5H7.25ZM7.25 13.125C7.25 12.6416 7.64157 12.25 8.125 12.25V15.25C9.29843 15.25 10.25 14.2984 10.25 13.125H7.25Z" fill="#58508D" mask="url(#path-3-inside-2)"/>
<rect x="5" y="12.5" width="20" height="17.5" rx="1" fill="#58508D"/>
</svg>
